<svg xmlns="http://www.w3.org/2000/svg" width="298" height="200">
  <circle
    cx="100"
    cy="100"
    r="80"
    fill="#f6e05e"
    stroke="black"
    stroke-width="4"
  />
  <path
    stroke="black"
    stroke-width="4"
    fill="white"
    d="
      M 67 11.4
      l 28 47
      s 13 30 -18.2 32.2
      l -54 0
      s -32.8 -1.4 -17.4 -32.6
      l 27.6 -47
      s 17 -23 34 0
      z
    "
    transform="
      translate(66, 53)
      scale(0.80)
      rotate(8)
    "
  >
  </path>
</svg>